{
  "messageVersion": "1.0",
  "invocationSource": "FulfillmentCodeHook",
  "sessionAttributes": {},
  "bot": {
    "name": " ",
    "alias": "$LATEST",
    "version": "$LATEST"
  },
  "outputDialogMode": "Text",
  "currentIntent": {
    "name": "CrearEmpleados",
    "slots":
 {
      "cedula": "7-923-1559",
      "nombre": "KEVIN",
      "apellido": "PEREZ",
      "fecha_nacimiento": "1997-10-08",
      "departamento": "INVENTARIO",
      "puesto": "ESPECIALISTA",
      "salario": 1000.00
    },
    "confirmationStatus": "None"

  }
}
